Introducing tidyLPA (an R package for carrying out Latent Profile Analysis) | Joshua M. Rosenberg
…
Here is a brief example using the built-in pisaUSA15 dataset and variables for broad interest, enjoyment, and self-efficacy. Note that we first type the name of the data frame, followed by the unquoted names of the variables used to create the profiles. We also specify the number of profiles and the model. See ?estimate_profiles for more details.

library(tidyLPA)

d <- pisaUSA15[1:100, ]

estimate_profiles(d, 
                  broad_interest, enjoyment, self_efficacy, 
                  n_profiles = 3, 
                  model = 2)
#> Fit varying means, equal variances and covariances (Model 2) model with 3 profiles.
#> LogLik is 279.692
#> BIC is 636.62
#> Entropy is 0.798
#> # A tibble: 94 x 5
#>    broad_interest enjoyment self_efficacy profile posterior_prob
#>             <dbl>     <dbl>         <dbl> <fct>            <dbl>
#>  1           3.80      4.00          1.00 1                0.976
#>  2           3.00      3.00          2.75 2                0.847
#>  3           1.80      2.80          3.38 2                0.982
#>  4           1.40      1.00          2.75 3                0.963
#>  5           1.80      2.20          2.00 3                0.824
#>  6           1.60      1.60          1.88 3                0.960
#>  7           3.00      3.80          2.25 1                0.847
#>  8           2.60      2.20          2.00 3                0.704
#>  9           1.00      2.80          2.62 3                0.584
#> 10           2.20      2.00          1.75 3                0.861
#> # ... with 84 more rows
…
