How many groups of Star Wars characters are there? R-squared and cross-validation approaches | Joshua M. Rosenberg
…
2017/07/02

Background

How many groups, or types, of Star Wars characters are there? I’ve been wanting to use the starwars dataset built-in to the dplyr package, and at the same time, have been working hard on an R package to carry out an analysis suited to doing this. Part of the challenge of using the approach in this R package is determining how groups groups there are.

Many approaches (Latent Profile Analysis, for example) use Maximum Likelihood estimation (while the approach I’ve developed uses a two-step cluster analysis based around the geometric (and algebraic) idea of “distance”, or how close (similar) observations are). This is easy enough when we’re talking about something like length. If something is 4 long and another thing 8, then what is there distance (4!)? When we’re talking about more than just length - say, length and width - then it’s the exact same idea, except the distance represents how far two things are across both measures - length and width.

But back to groups of Star Wars characters. How many are there? Let’s see what data we have:

library(dplyr)

starwars

## # A tibble: 87 x 13
##    name  height  mass hair_color skin_color eye_color birth_year gender
##    <chr>  <int> <dbl> <chr>      <chr>      <chr>          <dbl> <chr> 
##  1 Luke…    172    77 blond      fair       blue            19   male  
##  2 C-3PO    167    75 <NA>       gold       yellow         112   <NA>  
##  3 R2-D2     96    32 <NA>       white, bl… red             33   <NA>  
##  4 Dart…    202   136 none       white      yellow          41.9 male  
##  5 Leia…    150    49 brown      light      brown           19   female
##  6 Owen…    178   120 brown, gr… light      blue            52   male  
##  7 Beru…    165    75 brown      light      blue            47   female
##  8 R5-D4     97    32 <NA>       white, red red             NA   <NA>  
##  9 Bigg…    183    84 black      light      brown           24   male  
## 10 Obi-…    182    77 auburn, w… fair       blue-gray       57   male  
## # ... with 77 more rows, and 5 more variables: homeworld <chr>,
## #   species <chr>, films <list>, vehicles <list>, starships <list>
…
