Modifying an R function to iterate (using purrr) and use non-standard evaluation (using rlang) | Joshua M. Rosenberg
…
##           t  df
## 1  7.076763 178
## 2  4.127893 193
## 3  1.893137  47
## 4 -4.166395 138
## 5 -1.187599  97
## 6  3.585478  87

We would use it the same way as above but with d replaced with what we named the data.frame we read from the website, spreadsheet_of_vals:

mkonfound(spreadsheet_of_vals, t, df)

## # A tibble: 30 x 7
##         t    df action    inference      pct_bias_to_change_…   itcv r_con
##     <dbl> <int> <chr>     <chr>                         <dbl>  <dbl> <dbl>
##  1  7.08    178 to_inval… reject_null                   68.8   0.378 0.614
##  2  4.13    193 to_inval… reject_null                   50.6   0.168 0.41 
##  3  1.89     47 to_susta… fail_to_rejec…                 5.47 -0.012 0.11 
##  4 -4.17    138 to_inval… reject_null                   50.3   0.202 0.449
##  5 -1.19     97 to_susta… fail_to_rejec…                39.4  -0.065 0.255
##  6  3.59     87 to_inval… reject_null                   41.9   0.19  0.436
##  7  0.282   117 to_susta… fail_to_rejec…                85.5  -0.131 0.361
##  8  2.55     75 to_inval… reject_null                   20.6   0.075 0.274
##  9 -4.44    137 to_inval… reject_null                   53.0   0.225 0.475
## 10 -2.05    195 to_inval… reject_null                    3.51  0.006 0.077
## # ... with 20 more rows
…
